<svg width="127" height="42" viewBox="0 0 127 42" fill="none" xmlns="http://www.w3.org/2000/svg">
<path d="M59.2174 17H56.0552V5.52989H59.2174V17ZM63.7771 17H62.3115V5.52989H64.3666L71.3362 13.4076V5.52989H72.7939V17H70.7388L63.7771 9.13023V17ZM86.9996 11.249C86.9996 11.8066 86.9253 12.3376 86.7766 12.8421C86.6279 13.3412 86.4182 13.8032 86.1473 14.2281C85.8818 14.6529 85.5632 15.0379 85.1915 15.383C84.8198 15.7229 84.4082 16.0123 83.9569 16.2513C83.5108 16.4902 83.0302 16.6761 82.5151 16.8088C82.0054 16.9363 81.4796 17 80.938 17H75.88V5.52989H80.938C81.4796 5.52989 82.0054 5.59361 82.5151 5.72106C83.0249 5.84851 83.5028 6.03171 83.9489 6.27067C84.4003 6.50432 84.8118 6.79107 85.1835 7.13093C85.5606 7.47078 85.8818 7.85312 86.1473 8.27794C86.4182 8.69745 86.6279 9.15944 86.7766 9.66391C86.9253 10.1631 86.9996 10.6914 86.9996 11.249ZM83.7896 11.249C83.7896 10.6277 83.7126 10.0383 83.5586 9.48071C83.4099 8.91782 83.1763 8.42397 82.8576 7.99915C82.539 7.57433 82.1328 7.23713 81.6389 6.98755C81.1504 6.73797 80.5636 6.61318 79.8786 6.61318H79.0422V15.8849H79.8786C80.553 15.8849 81.1345 15.7601 81.623 15.5105C82.1169 15.2556 82.5231 14.9157 82.8417 14.4909C83.1656 14.0608 83.4046 13.5669 83.5586 13.0094C83.7126 12.4518 83.7896 11.865 83.7896 11.249ZM92.5948 17H89.4326V5.52989H92.5948V17ZM106.609 11.5119V11.6632C106.599 12.1093 106.551 12.5713 106.466 13.0492C106.386 13.5271 106.272 14.005 106.123 14.4829C105.975 14.9609 105.797 15.4335 105.59 15.9008C105.383 16.3681 105.149 16.8141 104.889 17.239C104.634 17.6691 104.358 18.07 104.06 18.4417C103.763 18.8188 103.45 19.1506 103.121 19.4374L101.934 18.7524C102.12 18.4391 102.287 18.0966 102.436 17.7248C102.59 17.3584 102.728 16.9734 102.85 16.5699C102.972 16.1663 103.075 15.7521 103.16 15.3273C103.251 14.9025 103.325 14.4803 103.383 14.0608C103.442 13.6413 103.484 13.2297 103.511 12.8262C103.543 12.4173 103.559 12.0296 103.559 11.6632C103.559 11.3765 103.556 11.0525 103.551 10.6914C103.551 10.325 103.529 9.95332 103.487 9.57629C103.45 9.19926 103.386 8.83286 103.296 8.47707C103.206 8.11598 103.07 7.79471 102.89 7.51326C102.714 7.23182 102.486 7.00614 102.205 6.83621C101.928 6.66628 101.583 6.58132 101.169 6.58132C100.803 6.58132 100.487 6.64504 100.221 6.77249C99.961 6.89462 99.7379 7.06189 99.5521 7.2743C99.3715 7.4814 99.2255 7.72302 99.114 7.99915C99.0078 8.27528 98.9228 8.56735 98.8591 8.87534C98.8007 9.17802 98.7608 9.48602 98.7396 9.79932C98.7237 10.1073 98.7157 10.3994 98.7157 10.6755V12.8978H102.149V14.2121H98.7157V17H95.5535V11.1694C95.5535 10.3357 95.6862 9.56036 95.9517 8.84348C96.2172 8.1266 96.5916 7.5053 97.0748 6.97959C97.5634 6.44856 98.1475 6.03436 98.8272 5.73699C99.5122 5.43431 100.274 5.28297 101.113 5.28297C101.681 5.28297 102.212 5.36527 102.706 5.52989C103.206 5.6892 103.66 5.91223 104.068 6.19898C104.477 6.48042 104.841 6.81762 105.16 7.21058C105.484 7.59823 105.752 8.02305 105.964 8.48504C106.182 8.94703 106.347 9.43557 106.458 9.95066C106.57 10.4658 106.62 10.9862 106.609 11.5119ZM66.4739 26.3735L65.1118 26.947C65.0056 26.6019 64.8622 26.2859 64.6817 25.9992C64.5064 25.7124 64.294 25.4681 64.0444 25.2663C63.8002 25.0592 63.5214 24.8999 63.2081 24.7884C62.8948 24.6716 62.5523 24.6132 62.1805 24.6132C61.7823 24.6132 61.4159 24.6796 61.0813 24.8123C60.7521 24.9398 60.4547 25.1177 60.1892 25.346C59.929 25.5743 59.7007 25.8398 59.5042 26.1425C59.3077 26.4452 59.1431 26.7691 59.0103 27.1143C58.8776 27.4542 58.7793 27.8073 58.7156 28.1737C58.6519 28.5401 58.62 28.8985 58.62 29.249C58.62 29.8066 58.6838 30.3615 58.8112 30.9138C58.944 31.466 59.1511 31.9625 59.4325 32.4033C59.7193 32.844 60.0883 33.2025 60.5397 33.4786C60.9911 33.7494 61.538 33.8849 62.1805 33.8849C62.5204 33.8849 62.8417 33.8291 63.1444 33.7176C63.447 33.6008 63.7205 33.4441 63.9648 33.2476C64.2144 33.0458 64.4321 32.8095 64.6179 32.5387C64.8038 32.2679 64.9525 31.9758 65.064 31.6625L66.442 32.2121C66.2402 32.7166 65.9641 33.16 65.6136 33.5423C65.2631 33.9194 64.8622 34.2327 64.4108 34.4823C63.9648 34.7318 63.4842 34.9177 62.9691 35.0398C62.4593 35.1673 61.9442 35.231 61.4238 35.231C60.861 35.231 60.3193 35.162 59.7989 35.0239C59.2838 34.8858 58.8032 34.6894 58.3572 34.4345C57.9111 34.1796 57.5049 33.8716 57.1385 33.5105C56.7774 33.1494 56.4667 32.7485 56.2065 32.3077C55.9516 31.867 55.7525 31.389 55.6091 30.8739C55.4711 30.3535 55.402 29.8119 55.402 29.249C55.402 28.6861 55.4711 28.1471 55.6091 27.632C55.7525 27.1116 55.9516 26.6311 56.2065 26.1903C56.4667 25.7443 56.7774 25.3407 57.1385 24.9796C57.5049 24.6185 57.9111 24.3105 58.3572 24.0556C58.8032 23.8007 59.2838 23.6042 59.7989 23.4662C60.3193 23.3281 60.861 23.2591 61.4238 23.2591C61.9655 23.2591 62.4938 23.3228 63.0089 23.4502C63.5293 23.5777 64.0126 23.7715 64.4586 24.0317C64.9047 24.2866 65.3003 24.6105 65.6455 25.0035C65.9959 25.3911 66.2721 25.8478 66.4739 26.3735ZM79.7317 29.5119V29.6632C79.7211 30.1093 79.6733 30.5713 79.5883 31.0492C79.5087 31.5271 79.3945 32.005 79.2458 32.4829C79.0972 32.9609 78.9193 33.4335 78.7122 33.9008C78.5051 34.3681 78.2714 34.8141 78.0112 35.239C77.7563 35.6691 77.4802 36.07 77.1828 36.4417C76.8854 36.8188 76.5721 37.1506 76.2429 37.4374L75.0561 36.7524C75.2419 36.4391 75.4092 36.0966 75.5579 35.7248C75.7119 35.3584 75.8499 34.9734 75.9721 34.5699C76.0942 34.1663 76.1978 33.7521 76.2827 33.3273C76.373 32.9025 76.4473 32.4803 76.5058 32.0608C76.5642 31.6413 76.6067 31.2297 76.6332 30.8262C76.6651 30.4173 76.681 30.0296 76.681 29.6632C76.681 29.3765 76.6783 29.0525 76.673 28.6914C76.673 28.325 76.6518 27.9533 76.6093 27.5763C76.5721 27.1993 76.5084 26.8329 76.4181 26.4771C76.3279 26.116 76.1925 25.7947 76.0119 25.5133C75.8367 25.2318 75.6083 25.0061 75.3269 24.8362C75.0508 24.6663 74.7056 24.5813 74.2914 24.5813C73.925 24.5813 73.609 24.645 73.3435 24.7725C73.0833 24.8946 72.8603 25.0619 72.6744 25.2743C72.4939 25.4814 72.3478 25.723 72.2363 25.9992C72.1301 26.2753 72.0452 26.5673 71.9814 26.8753C71.923 27.178 71.8832 27.486 71.862 27.7993C71.846 28.1073 71.8381 28.3994 71.8381 28.6755V30.8978H75.2711V32.2121H71.8381V35H68.6758V29.1694C68.6758 28.3357 68.8086 27.5604 69.0741 26.8435C69.3396 26.1266 69.714 25.5053 70.1972 24.9796C70.6857 24.4486 71.2699 24.0344 71.9496 23.737C72.6346 23.4343 73.3966 23.283 74.2356 23.283C74.8038 23.283 75.3348 23.3653 75.8287 23.5299C76.3279 23.6892 76.7819 23.9122 77.1908 24.199C77.5997 24.4804 77.9634 24.8176 78.282 25.2106C78.606 25.5982 78.8741 26.023 79.0865 26.485C79.3042 26.947 79.4689 27.4356 79.5804 27.9507C79.6919 28.4658 79.7423 28.9862 79.7317 29.5119ZM91.6833 31.4952C91.6833 31.9891 91.6195 32.4245 91.4921 32.8016C91.37 33.1786 91.1947 33.5052 90.9664 33.7813C90.7433 34.0574 90.4778 34.2884 90.1698 34.4743C89.8618 34.6601 89.5246 34.8088 89.1582 34.9203C88.7971 35.0319 88.4122 35.1115 88.0033 35.1593C87.5997 35.2071 87.1881 35.231 86.7686 35.231C86.2164 35.231 85.7066 35.1885 85.2393 35.1035C84.772 35.0239 84.3312 34.8965 83.917 34.7212C83.5082 34.5407 83.1125 34.3097 82.7302 34.0282C82.3532 33.7468 81.9761 33.4043 81.5991 33.0007L83.2241 31.3519C83.3727 31.7183 83.5772 32.0581 83.8374 32.3714C84.0976 32.6794 84.3817 32.9449 84.6897 33.168C85.003 33.391 85.3269 33.5662 85.6615 33.6937C85.996 33.8211 86.312 33.8849 86.6093 33.8849C86.9598 33.8849 87.289 33.861 87.597 33.8132C87.905 33.7601 88.1732 33.6751 88.4015 33.5583C88.6299 33.4414 88.8078 33.2874 88.9352 33.0963C89.068 32.8998 89.1343 32.6555 89.1343 32.3635C89.1343 32.1404 89.0839 31.9493 88.983 31.79C88.8821 31.6307 88.7494 31.4952 88.5847 31.3837C88.4254 31.2669 88.2422 31.1687 88.0351 31.089C87.828 31.0094 87.6156 30.943 87.3979 30.8899C87.1855 30.8315 86.9757 30.781 86.7686 30.7385C86.5615 30.6907 86.3783 30.643 86.219 30.5952C85.9057 30.5049 85.5791 30.4093 85.2393 30.3084C84.8994 30.2022 84.5649 30.0827 84.2357 29.95C83.9064 29.8172 83.5931 29.6659 83.2957 29.4959C83.0037 29.3207 82.7461 29.1163 82.5231 28.8826C82.3001 28.6436 82.1222 28.3702 81.9894 28.0622C81.8567 27.7489 81.7903 27.3904 81.7903 26.9869C81.7903 26.5036 81.8487 26.0761 81.9655 25.7044C82.0877 25.3274 82.2576 25.0008 82.4753 24.7247C82.693 24.4486 82.9506 24.2176 83.2479 24.0317C83.5453 23.8405 83.8719 23.6892 84.2277 23.5777C84.5835 23.4609 84.9605 23.3785 85.3588 23.3308C85.7623 23.2777 86.1739 23.2511 86.5934 23.2511C87.1669 23.2511 87.6873 23.3042 88.1546 23.4104C88.6272 23.5166 89.0627 23.668 89.4609 23.8644C89.8592 24.0609 90.2229 24.2972 90.5522 24.5734C90.8867 24.8442 91.2 25.1469 91.4921 25.4814L89.8672 27.1302C89.7397 26.7479 89.5618 26.4027 89.3335 26.0947C89.1104 25.7867 88.8609 25.5239 88.5847 25.3062C88.3086 25.0831 88.0192 24.9132 87.7165 24.7964C87.4138 24.6742 87.1218 24.6132 86.8403 24.6132C86.4739 24.6132 86.1367 24.6397 85.8287 24.6928C85.5207 24.7406 85.2552 24.8229 85.0322 24.9398C84.8145 25.0513 84.6445 25.2053 84.5224 25.4017C84.4003 25.5929 84.3392 25.8319 84.3392 26.1186C84.3392 26.347 84.3843 26.5408 84.4746 26.7001C84.5649 26.8594 84.6844 26.9948 84.8331 27.1063C84.9871 27.2178 85.1596 27.3108 85.3508 27.3851C85.542 27.4542 85.7384 27.5152 85.9402 27.5683C86.1473 27.6214 86.3491 27.6692 86.5456 27.7117C86.7474 27.7489 86.9306 27.7914 87.0952 27.8391C87.4138 27.9294 87.7484 28.025 88.0988 28.1259C88.4493 28.2268 88.7945 28.3463 89.1343 28.4843C89.4742 28.6171 89.7981 28.7711 90.1061 28.9463C90.4141 29.1216 90.6849 29.3313 90.9186 29.5756C91.1522 29.8146 91.3381 30.0933 91.4762 30.412C91.6142 30.7253 91.6833 31.0864 91.6833 31.4952ZM97.3103 35H94.1481V23.5299H97.3103V35ZM101.87 35H100.404V23.5299H102.459L109.429 31.4076V23.5299H110.887V35H108.832L101.87 27.1302V35ZM125.945 29.249C125.945 30.173 125.785 31.0067 125.467 31.7501C125.148 32.4883 124.708 33.1149 124.145 33.63C123.582 34.1451 122.915 34.5407 122.145 34.8168C121.375 35.0929 120.542 35.231 119.644 35.231C118.747 35.231 117.913 35.0929 117.143 34.8168C116.373 34.5407 115.707 34.1451 115.144 33.63C114.581 33.1149 114.14 32.4883 113.822 31.7501C113.503 31.0067 113.344 30.173 113.344 29.249C113.344 28.3091 113.5 27.4701 113.814 26.732C114.132 25.9885 114.57 25.3619 115.128 24.8521C115.691 24.337 116.357 23.9441 117.127 23.6733C117.897 23.3971 118.736 23.2591 119.644 23.2591C120.552 23.2591 121.391 23.3971 122.161 23.6733C122.931 23.9441 123.595 24.337 124.153 24.8521C124.715 25.3619 125.154 25.9885 125.467 26.732C125.785 27.4701 125.945 28.3091 125.945 29.249ZM122.727 29.249C122.727 28.8985 122.711 28.5401 122.679 28.1737C122.647 27.8073 122.589 27.4515 122.504 27.1063C122.419 26.7612 122.302 26.4372 122.153 26.1346C122.01 25.8319 121.824 25.569 121.596 25.346C121.367 25.1177 121.091 24.9398 120.767 24.8123C120.449 24.6796 120.074 24.6132 119.644 24.6132C119.209 24.6132 118.829 24.6796 118.505 24.8123C118.181 24.9398 117.905 25.115 117.677 25.338C117.448 25.5611 117.263 25.8239 117.119 26.1266C116.976 26.4293 116.862 26.7532 116.777 27.0984C116.697 27.4382 116.641 27.794 116.609 28.1657C116.578 28.5321 116.562 28.8932 116.562 29.249C116.562 29.5995 116.578 29.9579 116.609 30.3243C116.641 30.6907 116.7 31.0465 116.785 31.3917C116.87 31.7316 116.984 32.0528 117.127 32.3555C117.276 32.6582 117.464 32.9237 117.693 33.152C117.921 33.3751 118.195 33.553 118.513 33.6857C118.837 33.8185 119.214 33.8849 119.644 33.8849C120.064 33.8849 120.43 33.8185 120.743 33.6857C121.057 33.5477 121.328 33.3644 121.556 33.1361C121.784 32.9025 121.973 32.6343 122.121 32.3316C122.275 32.0236 122.395 31.6997 122.48 31.3598C122.57 31.0147 122.634 30.6615 122.671 30.3004C122.708 29.9393 122.727 29.5889 122.727 29.249Z" fill="white"/>
<path d="M21 0C9.42007 0 0 9.42007 0 21C0 32.5799 9.42007 42 21 42C32.5799 42 42 32.5799 42 21C42 9.42007 32.5799 0 21 0ZM36.2978 12.6176C37.2154 12.6176 38.0573 13.2186 38.4432 14.1474C38.726 14.8338 38.7074 15.6088 38.3908 16.2203C38.0775 16.8293 37.4902 17.2458 36.6958 17.4287C35.3698 17.7316 30.2469 18.8079 26.508 19.5902C25.8192 19.7336 25.1538 19.8294 24.6656 19.8544C24.9773 19.5749 25.4752 19.1817 26.1551 18.737C28.3504 17.3014 33.5958 13.8735 34.888 13.0631C35.3585 12.7674 35.833 12.6176 36.2978 12.6176ZM32.5928 7.26827C33.2293 7.26827 33.8681 7.54379 34.3466 8.02233C34.8711 8.54678 35.1507 9.27023 35.0926 9.95822C35.0379 10.6398 34.656 11.2504 33.9898 11.7233C32.9086 12.4911 28.7251 15.3542 25.4043 17.6188C24.7324 18.078 24.1806 18.3874 23.8027 18.5678C23.9832 18.1892 24.2934 17.6374 24.7518 16.9655C27.0155 13.6488 29.8747 9.4668 30.6473 8.38083C31.1653 7.65336 31.838 7.26827 32.5928 7.26827ZM27.221 3.73242C27.5609 3.73242 27.9082 3.8017 28.224 3.93302C28.9103 4.2166 29.4445 4.77892 29.6539 5.43549C29.8626 6.08643 29.7425 6.79618 29.3091 7.48659C28.6034 8.61204 25.8337 12.856 23.6344 16.2195C23.1905 16.9002 22.7997 17.3965 22.5194 17.7083C22.5403 17.2901 22.6161 16.661 22.7828 15.8658C23.3194 13.2959 24.6059 7.15951 24.9435 5.67879C25.2214 4.45989 26.0738 3.73242 27.221 3.73242ZM23.2082 21.373C23.2082 22.5911 22.2181 23.582 21 23.582C19.7819 23.582 18.791 22.5911 18.791 21.373C18.791 20.1549 19.7819 19.164 21 19.164C22.2181 19.164 23.2082 20.1549 23.2082 21.373ZM19.1028 3.33445C19.5475 2.80757 20.2556 2.49419 20.9984 2.49419C21.7412 2.49419 22.4493 2.80757 22.894 3.33445C23.3363 3.85729 23.4974 4.55818 23.3613 5.36218C23.1236 6.76395 22.0682 12.3799 21.46 15.6024C21.2844 16.5312 21.1152 17.2273 20.9984 17.6293C20.8808 17.2273 20.7124 16.5312 20.5368 15.6024C19.9277 12.3759 18.8716 6.7567 18.6363 5.36299C18.5002 4.55898 18.6621 3.85729 19.1028 3.33445ZM12.3453 5.43308C12.5547 4.7765 13.0888 4.21418 13.7752 3.9306C14.091 3.80009 14.4383 3.73 14.7782 3.73C15.9254 3.73 16.7762 4.45667 17.0541 5.67637C17.3916 7.14662 18.679 13.2903 19.2156 15.8626C19.3823 16.6585 19.4564 17.2869 19.4798 17.705C19.2011 17.3949 18.8087 16.8978 18.3632 16.2171C16.1631 12.8512 13.3926 8.60559 12.6901 7.48418C12.2575 6.79457 12.1382 6.08482 12.3453 5.43308ZM7.65013 8.02474C8.12867 7.54621 8.76833 7.27069 9.40396 7.27069C10.1588 7.27069 10.8307 7.65497 11.3487 8.38324C11.9529 9.23397 13.9372 12.1221 17.2442 16.9671C17.7026 17.639 18.0112 18.1908 18.1916 18.5687C17.8154 18.3866 17.2636 18.0772 16.5925 17.6204C11.7467 14.3134 8.85775 12.3292 8.00783 11.7249C7.34239 11.2528 6.96053 10.6422 6.90333 9.96145C6.84613 9.27345 7.12568 8.5492 7.65013 8.02474ZM3.5576 14.149C3.94349 13.2194 4.78536 12.6192 5.70296 12.6192C6.1678 12.6192 6.64231 12.769 7.11279 13.0639C7.99735 13.6181 10.8533 15.4751 15.8457 18.7386C16.5264 19.1825 17.0235 19.5749 17.3361 19.8544C16.8479 19.8294 16.1808 19.7344 15.492 19.591C9.63839 18.3648 6.30636 17.6575 5.30498 17.4287C4.50984 17.2458 3.92335 16.8285 3.60997 16.2203C3.29255 15.6088 3.27402 14.8346 3.5576 14.149ZM2.12119 21.3738C2.12119 20.1767 2.91955 18.9634 4.44781 18.9634C4.6194 18.9634 4.80067 18.9795 4.98999 19.0109C6.29347 19.2309 11.277 20.167 15.2286 20.9122C16.1582 21.087 16.8543 21.2554 17.2571 21.3722C16.8535 21.4898 16.1574 21.6582 15.2286 21.8338C11.277 22.5798 6.29267 23.5143 4.98999 23.7351C3.11935 24.0541 2.12119 22.7063 2.12119 21.3738ZM3.5568 28.597C3.27402 27.9114 3.29255 27.1372 3.60916 26.5249C3.92255 25.9159 4.50903 25.4994 5.30418 25.3165C6.68581 25.0007 12.28 23.8253 15.4912 23.1542C16.18 23.0108 16.8454 22.915 17.3353 22.89C17.0235 23.1703 16.5264 23.5627 15.8457 24.0066C10.9274 27.2234 7.9893 29.1327 7.11279 29.6821C5.71424 30.5611 4.13845 29.9987 3.5568 28.597ZM9.40718 35.4777C8.77075 35.4777 8.13189 35.2022 7.65336 34.7237C7.1289 34.1992 6.84935 33.4758 6.90735 32.7878C6.96214 32.1054 7.344 31.4956 8.01024 31.0227C8.86097 30.4185 11.7491 28.4342 16.5941 25.1272C17.266 24.6688 17.8178 24.3602 18.1957 24.1798C18.0152 24.5576 17.7058 25.1094 17.2482 25.7805C13.9412 30.6255 11.957 33.5144 11.3527 34.3652C10.8339 35.0935 10.1612 35.4777 9.40718 35.4777ZM14.7782 39.0144C14.4375 39.0144 14.091 38.9451 13.7752 38.8138C13.0888 38.5302 12.5547 37.9679 12.3453 37.3113C12.1382 36.6596 12.2566 35.9498 12.6909 35.2594C13.2411 34.3805 15.1504 31.4416 18.3656 26.5265C18.8095 25.8458 19.2019 25.3495 19.4814 25.0378C19.4597 25.4559 19.3847 26.0851 19.2172 26.8802C18.6798 29.4509 17.3941 35.5881 17.0565 37.0664C16.7762 38.2869 15.9254 39.0144 14.7782 39.0144ZM22.8972 39.4107C22.4517 39.9376 21.7428 40.2518 21 40.2518C20.2572 40.2518 19.5491 39.9384 19.1044 39.4116C18.6629 38.8887 18.5018 38.1878 18.6379 37.3814C18.8732 35.9893 19.9293 30.3685 20.5384 27.142C20.714 26.2131 20.8832 25.5171 21 25.1143C21.1168 25.5179 21.2852 26.2131 21.4616 27.142C22.0699 30.3645 23.1252 35.9812 23.3629 37.3814C23.4998 38.187 23.3379 38.8879 22.8972 39.4107ZM29.6555 37.3129C29.4461 37.9695 28.912 38.5318 28.2256 38.8154C27.9082 38.9459 27.5609 39.0152 27.2202 39.0152C26.0738 39.0152 25.2222 38.2877 24.9443 37.0688C24.6285 35.6896 23.4531 30.0946 22.782 26.8826C22.6153 26.0875 22.5411 25.4583 22.5178 25.0402C22.7981 25.3519 23.1905 25.8482 23.6352 26.5289C25.8337 29.8908 28.6034 34.1356 29.3091 35.2618C29.7434 35.9514 29.8626 36.6612 29.6555 37.3129ZM34.3507 34.7213C33.8721 35.1998 33.2317 35.4753 32.5968 35.4753C31.8396 35.4761 31.1669 35.0918 30.6505 34.3636C29.8795 33.2776 27.018 29.0964 24.7542 25.7797C24.2958 25.1078 23.9872 24.556 23.8068 24.1774C24.1846 24.3578 24.7364 24.6688 25.4075 25.1256C28.7267 27.391 32.9118 30.2533 33.993 31.0211C34.6584 31.4932 35.0403 32.1046 35.0975 32.7854C35.1547 33.4726 34.8751 34.196 34.3507 34.7213ZM38.4424 28.597C37.8624 29.9971 36.2874 30.5619 34.8872 29.6821C33.7618 28.9764 29.5178 26.2067 26.1543 24.0074C25.4736 23.5627 24.9765 23.1703 24.6639 22.8908C25.1521 22.9158 25.8184 23.0116 26.5064 23.155C30.4346 23.9776 35.3907 25.02 36.6934 25.3173C37.4886 25.5002 38.075 25.9183 38.3892 26.5257C38.7074 27.138 38.726 27.9122 38.4424 28.597ZM37.01 23.7343C35.9764 23.5602 32.5324 22.9206 26.7706 21.833C25.8418 21.659 25.1457 21.4906 24.7429 21.373C25.1457 21.2562 25.8418 21.0878 26.7706 20.9114C32.5308 19.8238 35.9764 19.1849 37.01 19.0101C38.8798 18.6967 39.8788 20.0397 39.8788 21.3722C39.8788 22.7047 38.8798 24.0525 37.01 23.7343Z" fill="#149E4C"/>
</svg>
